module brent-oil-price

go 1.19

require (
	github.com/PuerkitoBio/goquery v1.8.1 // indirect
	github.com/alexflint/go-arg v1.4.3 // indirect
	github.com/alexflint/go-scalar v1.1.0 // indirect
	github.com/andybalholm/cascadia v1.3.1 // indirect
	github.com/joho/godotenv v1.5.1 // indirect
	golang.org/x/net v0.7.0 // indirect
)
